{
  "components": [
    {
      "data": {
        "contents_checksum": "4b244de0f4697b7d980bb24d5b2bbd50fb5170395ee6068eeeadbc9ea3d6ed41", 
        "source": "", 
        "type": "tar"
      }, 
      "dependencies": [
        "core", 
        "gcloud-deps-darwin-x86", 
        "gcloud-deps-darwin-x86_64", 
        "gcloud-deps-linux-x86", 
        "gcloud-deps-linux-x86_64", 
        "gcloud-deps-windows-x86", 
        "gcloud-deps-windows-x86_64"
      ], 
      "details": {
        "description": "Set of third_party gcloud cli dependencies.", 
        "display_name": "gcloud cli dependencies"
      }, 
      "id": "gcloud-deps", 
      "is_configuration": false, 
      "is_hidden": true, 
      "is_required": false, 
      "platform": {}, 
      "version": {
        "build_number": 20180928193538, 
        "version_string": "2018.09.28"
      }
    }
  ], 
  "revision": 20180928193538, 
  "schema_version": {
    "no_update": false, 
    "url": "https://dl.google.com/dl/cloudsdk/channels/rapid/google-cloud-sdk.tar.gz", 
    "version": 3
  }, 
  "version": "219.0.1"
}